…
## Step 2: Get Google Drive ID for latest DoH Data Drop
gid <- datadrop_id()

## Step 3: List the files and folders available in the latest DoH Data Drop
data_list <- datadrop_ls(id = gid)

## Step 4: Retrieve the specified/required dataset and load into R
datadrop_get(tbl = data_list, fn = "Case Information", path = tempfile())
```

This workflow produces the following output:

    #> # A tibble: 412,097 x 22
    #>    CaseCode   Age AgeGroup Sex   DateSpecimen DateResultRelea… DateRepConf
    #>    <chr>    <dbl> <chr>    <chr> <chr>        <chr>            <chr>      
    #>  1 C516975     51 50 to 54 MALE  2020-09-03   2020-09-03       2020-09-05 
    #>  2 C643966     25 25 to 29 MALE  2020-08-28   2020-09-09       2020-09-10 
    #>  3 C835097     23 20 to 24 FEMA… 2020-08-15   2020-08-17       2020-08-20 
    #>  4 C176417     73 70 to 74 MALE  2020-08-13   2020-08-17       2020-08-19 
    #>  5 C940421     22 20 to 24 MALE  2020-06-24   2020-06-29       2020-07-04 
    #>  6 C650556     26 25 to 29 MALE  2020-10-25   2020-10-28       2020-10-31 
    #>  7 C549944     32 30 to 34 MALE  2020-06-19   2020-06-23       2020-06-26 
    #>  8 C887500     25 25 to 29 FEMA… 2020-06-24   2020-06-29       2020-07-04 
    #>  9 C352799     41 40 to 44 FEMA… 2020-09-27   2020-09-29       2020-10-01 
    #> 10 C776384     49 45 to 49 FEMA… 2020-09-14   2020-09-15       2020-09-17 
    #> # … with 412,087 more rows, and 15 more variables: DateDied <chr>,
    #> #   DateRecover <chr>, RemovalType <chr>, Admitted <chr>, RegionRes <chr>,
    #> #   ProvRes <chr>, CityMunRes <chr>, CityMuniPSGC <chr>, BarangayRes <chr>,
    #> #   BarangayPSGC <chr>, HealthStatus <chr>, Quarantined <chr>, DateOnset <chr>,
    #> #   Pregnanttab <chr>, ValidationStatus <chr>
…
``` r
## Load magrittr package
library(magrittr)

## Retrieve latest Case Information dataset from DoH Data Drop
datadrop_id() %>%                                 ## Step 1
  datadrop_ls() %>%                               ## Step 2
  datadrop_get(fn = "Case Information",           ## Step 3
               path = tempfile())                 
```

This outputs this result:

    #> # A tibble: 412,097 x 22
    #>    CaseCode   Age AgeGroup Sex   DateSpecimen DateResultRelea… DateRepConf
    #>    <chr>    <dbl> <chr>    <chr> <chr>        <chr>            <chr>      
    #>  1 C516975     51 50 to 54 MALE  2020-09-03   2020-09-03       2020-09-05 
    #>  2 C643966     25 25 to 29 MALE  2020-08-28   2020-09-09       2020-09-10 
    #>  3 C835097     23 20 to 24 FEMA… 2020-08-15   2020-08-17       2020-08-20 
    #>  4 C176417     73 70 to 74 MALE  2020-08-13   2020-08-17       2020-08-19 
    #>  5 C940421     22 20 to 24 MALE  2020-06-24   2020-06-29       2020-07-04 
    #>  6 C650556     26 25 to 29 MALE  2020-10-25   2020-10-28       2020-10-31 
    #>  7 C549944     32 30 to 34 MALE  2020-06-19   2020-06-23       2020-06-26 
    #>  8 C887500     25 25 to 29 FEMA… 2020-06-24   2020-06-29       2020-07-04 
    #>  9 C352799     41 40 to 44 FEMA… 2020-09-27   2020-09-29       2020-10-01 
    #> 10 C776384     49 45 to 49 FEMA… 2020-09-14   2020-09-15       2020-09-17 
    #> # … with 412,087 more rows, and 15 more variables: DateDied <chr>,
    #> #   DateRecover <chr>, RemovalType <chr>, Admitted <chr>, RegionRes <chr>,
    #> #   ProvRes <chr>, CityMunRes <chr>, CityMuniPSGC <chr>, BarangayRes <chr>,
    #> #   BarangayPSGC <chr>, HealthStatus <chr>, Quarantined <chr>, DateOnset <chr>,
    #> #   Pregnanttab <chr>, ValidationStatus <chr>
…
#### Step 3: Retrieve the specified/required dataset and load into R

Finally, using the specific *Google Drive* ID for the file of interest,
the `datadrop_id_file` function is used to retrieve the file and output
it into [R](https://cran.r-project.org):

``` r
## Retrieve the latest Case Information file in the DoH Data Drop
gid <- datadrop_id()
tab <- datadrop_ls(id = gid)
datadrop_get(tbl = tab, fn = "Case Information", path = tempfile())
#> # A tibble: 412,097 x 22
#>    CaseCode   Age AgeGroup Sex   DateSpecimen DateResultRelea… DateRepConf
#>    <chr>    <dbl> <chr>    <chr> <chr>        <chr>            <chr>      
#>  1 C516975     51 50 to 54 MALE  2020-09-03   2020-09-03       2020-09-05 
#>  2 C643966     25 25 to 29 MALE  2020-08-28   2020-09-09       2020-09-10 
#>  3 C835097     23 20 to 24 FEMA… 2020-08-15   2020-08-17       2020-08-20 
#>  4 C176417     73 70 to 74 MALE  2020-08-13   2020-08-17       2020-08-19 
#>  5 C940421     22 20 to 24 MALE  2020-06-24   2020-06-29       2020-07-04 
#>  6 C650556     26 25 to 29 MALE  2020-10-25   2020-10-28       2020-10-31 
#>  7 C549944     32 30 to 34 MALE  2020-06-19   2020-06-23       2020-06-26 
#>  8 C887500     25 25 to 29 FEMA… 2020-06-24   2020-06-29       2020-07-04 
#>  9 C352799     41 40 to 44 FEMA… 2020-09-27   2020-09-29       2020-10-01 
#> 10 C776384     49 45 to 49 FEMA… 2020-09-14   2020-09-15       2020-09-17 
#> # … with 412,087 more rows, and 15 more variables: DateDied <chr>,
#> #   DateRecover <chr>, RemovalType <chr>, Admitted <chr>, RegionRes <chr>,
#> #   ProvRes <chr>, CityMunRes <chr>, CityMuniPSGC <chr>, BarangayRes <chr>,
#> #   BarangayPSGC <chr>, HealthStatus <chr>, Quarantined <chr>, DateOnset <chr>,
#> #   Pregnanttab <chr>, ValidationStatus <chr>
```

``` r
## Retrieve the archive Case Information file in the DoH Data Drop
## on 1 November 2020
gid <- datadrop_id(version = "archive", .date = "2020-11-01")
tab <- datadrop_ls(id = gid)
datadrop_get(tbl = tab, fn = "Case Information", path = tempfile())
#> # A tibble: 383,113 x 22
#>    CaseCode   Age AgeGroup Sex   DateSpecimen DateResultRelea… DateRepConf
#>    <chr>    <dbl> <chr>    <chr> <chr>        <chr>            <chr>      
#>  1 C545959     23 20 to 24 FEMA… "2020-08-15" "2020-08-16"     2020-08-19 
#>  2 C542194     40 40 to 44 MALE  "2020-07-28" "2020-07-30"     2020-08-03 
#>  3 C805584     31 30 to 34 MALE  ""           ""               2020-07-31 
#>  4 C656786     51 50 to 54 FEMA… "2020-07-13" "2020-07-14"     2020-07-17 
#>  5 C345520     23 20 to 24 MALE  ""           ""               2020-05-20 
#>  6 C700565     50 50 to 54 MALE  "2020-07-29" "2020-07-31"     2020-08-05 
#>  7 C290814     68 65 to 69 MALE  "2020-05-23" ""               2020-05-30 
#>  8 C197757     34 30 to 34 MALE  "2020-07-16" "2020-07-20"     2020-07-23 
#>  9 C679290     49 45 to 49 MALE  "2020-06-03" "2020-06-04"     2020-06-07 
#> 10 C667799     28 25 to 29 FEMA… "2020-07-10" "2020-07-15"     2020-08-08 
#> # … with 383,103 more rows, and 15 more variables: DateDied <chr>,
#> #   DateRecover <chr>, RemovalType <chr>, Admitted <chr>, RegionRes <chr>,
#> #   ProvRes <chr>, CityMunRes <chr>, CityMuniPSGC <chr>, BarangayRes <chr>,
#> #   BarangayPSGC <chr>, HealthStatus <chr>, Quarantined <chr>, DateOnset <chr>,
#> #   Pregnanttab <chr>, ValidationStatus <chr>
```
…
