An Interface to the Philippines Department of Health COVID-19 Data Drop • covidphdata
…
## Step 1: Get Google Drive ID for latest DoH Data Drop
gid <- datadrop_id()

## Step 2: List the files and folders available in the latest DoH Data Drop
data_list <- datadrop_ls(id = gid)

## Step 3: Retrieve the specified/required dataset and load into R
datadrop_get(tbl = data_list, fn = "Case Information", path = tempfile())

This workflow produces the following output:

#> # A tibble: 413,430 x 22
#>    CaseCode   Age AgeGroup Sex   DateSpecimen DateResultRelea… DateRepConf
#>    <chr>    <dbl> <chr>    <chr> <chr>        <chr>            <chr>      
#>  1 C961991     38 35 to 39 FEMA… 2020-07-20   "2020-07-24"     2020-07-28 
#>  2 C374422     51 50 to 54 FEMA… 2020-05-25   ""               2020-05-31 
#>  3 C927869     68 65 to 69 MALE  2020-07-27   "2020-07-29"     2020-08-01 
#>  4 C111115     55 55 to 59 MALE  2020-07-14   "2020-07-16"     2020-07-19 
#>  5 C711756     28 25 to 29 FEMA… 2020-06-17   ""               2020-06-23 
#>  6 C270636     28 25 to 29 MALE  2020-05-10   "2020-08-24"     2020-08-28 
#>  7 C294694     50 50 to 54 FEMA… 2020-07-22   "2020-07-25"     2020-08-02 
#>  8 C341042     52 50 to 54 MALE  2020-07-24   "2020-07-28"     2020-08-02 
#>  9 C902321     54 50 to 54 FEMA… 2020-07-01   "2020-07-04"     2020-07-06 
#> 10 C267766     52 50 to 54 FEMA… 2020-07-02   "2020-07-03"     2020-07-05 
#> # … with 413,420 more rows, and 15 more variables: DateDied <chr>,
#> #   DateRecover <chr>, RemovalType <chr>, Admitted <chr>, RegionRes <chr>,
#> #   ProvRes <chr>, CityMunRes <chr>, CityMuniPSGC <chr>, BarangayRes <chr>,
#> #   BarangayPSGC <chr>, HealthStatus <chr>, Quarantined <chr>, DateOnset <chr>,
#> #   Pregnanttab <chr>, ValidationStatus <chr>

The functions in the covidphdata workflow were designed to be usable with piped operations provided by the magrittr package. The pipe operator %>% can be used with the covidphdata workflow as follows:

## Load magrittr package
library(magrittr)

## Retrieve latest Case Information dataset from DoH Data Drop
datadrop_id() %>%                                 ## Step 1
  datadrop_ls() %>%                               ## Step 2
  datadrop_get(fn = "Case Information",           ## Step 3
               path = tempfile())                 

This outputs this result:

#> # A tibble: 413,430 x 22
#>    CaseCode   Age AgeGroup Sex   DateSpecimen DateResultRelea… DateRepConf
#>    <chr>    <dbl> <chr>    <chr> <chr>        <chr>            <chr>      
#>  1 C961991     38 35 to 39 FEMA… 2020-07-20   "2020-07-24"     2020-07-28 
#>  2 C374422     51 50 to 54 FEMA… 2020-05-25   ""               2020-05-31 
#>  3 C927869     68 65 to 69 MALE  2020-07-27   "2020-07-29"     2020-08-01 
#>  4 C111115     55 55 to 59 MALE  2020-07-14   "2020-07-16"     2020-07-19 
#>  5 C711756     28 25 to 29 FEMA… 2020-06-17   ""               2020-06-23 
#>  6 C270636     28 25 to 29 MALE  2020-05-10   "2020-08-24"     2020-08-28 
#>  7 C294694     50 50 to 54 FEMA… 2020-07-22   "2020-07-25"     2020-08-02 
#>  8 C341042     52 50 to 54 MALE  2020-07-24   "2020-07-28"     2020-08-02 
#>  9 C902321     54 50 to 54 FEMA… 2020-07-01   "2020-07-04"     2020-07-06 
#> 10 C267766     52 50 to 54 FEMA… 2020-07-02   "2020-07-03"     2020-07-05 
#> # … with 413,420 more rows, and 15 more variables: DateDied <chr>,
#> #   DateRecover <chr>, RemovalType <chr>, Admitted <chr>, RegionRes <chr>,
#> #   ProvRes <chr>, CityMunRes <chr>, CityMuniPSGC <chr>, BarangayRes <chr>,
#> #   BarangayPSGC <chr>, HealthStatus <chr>, Quarantined <chr>, DateOnset <chr>,
#> #   Pregnanttab <chr>, ValidationStatus <chr>
…
Step 3: Retrieve the specified/required dataset and load into R

Finally, using the specific Google Drive ID for the file of interest, the datadrop_id_file function is used to retrieve the file and output it into R:

## Retrieve the latest Case Information file in the DoH Data Drop
gid <- datadrop_id()
tab <- datadrop_ls(id = gid)
datadrop_get(tbl = tab, fn = "Case Information", path = tempfile())
#> # A tibble: 413,430 x 22
#>    CaseCode   Age AgeGroup Sex   DateSpecimen DateResultRelea… DateRepConf
#>    <chr>    <dbl> <chr>    <chr> <chr>        <chr>            <chr>      
#>  1 C961991     38 35 to 39 FEMA… 2020-07-20   "2020-07-24"     2020-07-28 
#>  2 C374422     51 50 to 54 FEMA… 2020-05-25   ""               2020-05-31 
#>  3 C927869     68 65 to 69 MALE  2020-07-27   "2020-07-29"     2020-08-01 
#>  4 C111115     55 55 to 59 MALE  2020-07-14   "2020-07-16"     2020-07-19 
#>  5 C711756     28 25 to 29 FEMA… 2020-06-17   ""               2020-06-23 
#>  6 C270636     28 25 to 29 MALE  2020-05-10   "2020-08-24"     2020-08-28 
#>  7 C294694     50 50 to 54 FEMA… 2020-07-22   "2020-07-25"     2020-08-02 
#>  8 C341042     52 50 to 54 MALE  2020-07-24   "2020-07-28"     2020-08-02 
#>  9 C902321     54 50 to 54 FEMA… 2020-07-01   "2020-07-04"     2020-07-06 
#> 10 C267766     52 50 to 54 FEMA… 2020-07-02   "2020-07-03"     2020-07-05 
#> # … with 413,420 more rows, and 15 more variables: DateDied <chr>,
#> #   DateRecover <chr>, RemovalType <chr>, Admitted <chr>, RegionRes <chr>,
#> #   ProvRes <chr>, CityMunRes <chr>, CityMuniPSGC <chr>, BarangayRes <chr>,
#> #   BarangayPSGC <chr>, HealthStatus <chr>, Quarantined <chr>, DateOnset <chr>,
#> #   Pregnanttab <chr>, ValidationStatus <chr>

## Retrieve the archive Case Information file in the DoH Data Drop
## on 1 November 2020
gid <- datadrop_id(version = "archive", .date = "2020-11-01")
tab <- datadrop_ls(id = gid)
datadrop_get(tbl = tab, fn = "Case Information", path = tempfile())
#> # A tibble: 383,113 x 22
#>    CaseCode   Age AgeGroup Sex   DateSpecimen DateResultRelea… DateRepConf
#>    <chr>    <dbl> <chr>    <chr> <chr>        <chr>            <chr>      
#>  1 C545959     23 20 to 24 FEMA… "2020-08-15" "2020-08-16"     2020-08-19 
#>  2 C542194     40 40 to 44 MALE  "2020-07-28" "2020-07-30"     2020-08-03 
#>  3 C805584     31 30 to 34 MALE  ""           ""               2020-07-31 
#>  4 C656786     51 50 to 54 FEMA… "2020-07-13" "2020-07-14"     2020-07-17 
#>  5 C345520     23 20 to 24 MALE  ""           ""               2020-05-20 
#>  6 C700565     50 50 to 54 MALE  "2020-07-29" "2020-07-31"     2020-08-05 
#>  7 C290814     68 65 to 69 MALE  "2020-05-23" ""               2020-05-30 
#>  8 C197757     34 30 to 34 MALE  "2020-07-16" "2020-07-20"     2020-07-23 
#>  9 C679290     49 45 to 49 MALE  "2020-06-03" "2020-06-04"     2020-06-07 
#> 10 C667799     28 25 to 29 FEMA… "2020-07-10" "2020-07-15"     2020-08-08 
#> # … with 383,103 more rows, and 15 more variables: DateDied <chr>,
#> #   DateRecover <chr>, RemovalType <chr>, Admitted <chr>, RegionRes <chr>,
#> #   ProvRes <chr>, CityMunRes <chr>, CityMuniPSGC <chr>, BarangayRes <chr>,
#> #   BarangayPSGC <chr>, HealthStatus <chr>, Quarantined <chr>, DateOnset <chr>,
#> #   Pregnanttab <chr>, ValidationStatus <chr>
…
